…
```r
dt11_COVID_19 <- dt_COVID_19%>% 
  group_by(continent_geographical, countries, longitude, latitude) %>% 
  summarise(cases = sum(cases), deaths = sum(deaths), .groups = 'drop')
dt11_COVID_19
```

```
## # A tibble: 219 x 6
##    continent_geographical countries             longitude latitude  cases deaths
##    <chr>                  <chr>                     <dbl>    <dbl>  <dbl>  <dbl>
##  1 Africa                 Algeria                    1.66    28.0  118647   3131
##  2 Africa                 Angola                    17.9    -11.2   23862    556
##  3 Africa                 Benin                      2.32     9.31   7611     95
##  4 Africa                 Botswana                  24.7    -22.3   43703    670
##  5 Africa                 Burkina_Faso              -1.56    12.2   12885    154
##  6 Africa                 Burundi                   29.9     -3.37   3424      6
##  7 Africa                 Cameroon                  12.4      7.37  61660    919
##  8 Africa                 Cape_Verde               -24.0     16.0   19776    188
##  9 Africa                 Central_African_Repu~     20.9      6.61   5682     75
## 10 Africa                 Chad                      18.7     15.5    4672    168
## # ... with 209 more rows
```

```r
dt3_COVID_19 <-dt_COVID_19%>% 
  group_by(date_rep, duration_days) %>% 
 summarise(cases = sum(cases), deaths = sum(deaths), .groups = 'drop')
dt3_COVID_19
```

```
## # A tibble: 472 x 4
##    date_rep   duration_days cases deaths
##    <date>     <ord>         <dbl>  <dbl>
##  1 2019-12-31 1                27      0
##  2 2020-01-01 2                 0      0
##  3 2020-01-02 3                 0      0
##  4 2020-01-03 4                17      0
##  5 2020-01-04 5                 0      0
##  6 2020-01-05 6                15      0
##  7 2020-01-06 7                 0      0
##  8 2020-01-07 8                 0      0
##  9 2020-01-08 9                 0      0
## 10 2020-01-09 10                0      0
## # ... with 462 more rows
```

```r
dt31_COVID_19 <-dt_COVID_19%>% 
  group_by(date_rep, duration_days, continent_geographical) %>% 
  summarise(cases = sum(cases), deaths = sum(deaths), .groups = 'drop')
dt31_COVID_19
```

```
## # A tibble: 3,304 x 5
##    date_rep   duration_days continent_geographical cases deaths
##    <date>     <ord>         <chr>                  <dbl>  <dbl>
##  1 2019-12-31 1             Africa                     0      0
##  2 2019-12-31 1             Asia                      27      0
##  3 2019-12-31 1             Australia & Oceania        0      0
##  4 2019-12-31 1             Europe                     0      0
##  5 2019-12-31 1             Europe / Asia              0      0
##  6 2019-12-31 1             North America              0      0
##  7 2019-12-31 1             South America              0      0
##  8 2020-01-01 2             Africa                     0      0
##  9 2020-01-01 2             Asia                       0      0
## 10 2020-01-01 2             Australia & Oceania        0      0
## # ... with 3,294 more rows
```

```r
dt32_COVID_19 <-dt_COVID_19%>% 
  group_by(date_rep, duration_days, covid_19_spread) %>% 
  summarise(cases = sum(cases), deaths = sum(deaths), .groups = 'drop')
dt32_COVID_19
```

```
## # A tibble: 2,832 x 5
##    date_rep   duration_days covid_19_spread     cases deaths
##    <date>     <ord>         <chr>               <dbl>  <dbl>
##  1 2019-12-31 1             Asia_Spread             0      0
##  2 2019-12-31 1             Europe/Asia_Spread      0      0
##  3 2019-12-31 1             NewEpiCentre_Europe     0      0
##  4 2019-12-31 1             Source_China           27      0
##  5 2019-12-31 1             USA_Spread              0      0
##  6 2019-12-31 1             Worldwide_Spread        0      0
##  7 2020-01-01 2             Asia_Spread             0      0
##  8 2020-01-01 2             Europe/Asia_Spread      0      0
##  9 2020-01-01 2             NewEpiCentre_Europe     0      0
## 10 2020-01-01 2             Source_China            0      0
## # ... with 2,822 more rows
```

```r
dt33_COVID_19 <-dt_COVID_19%>% 
  group_by(date_rep, duration_days, continent_geographical, countries) %>% 
  summarise(cases = sum(cases), deaths = sum(deaths), .groups = 'drop')
dt33_COVID_19
```

```
## # A tibble: 86,144 x 6
##    date_rep   duration_days continent_geograp~ countries            cases deaths
##    <date>     <ord>         <chr>              <chr>                <dbl>  <dbl>
##  1 2019-12-31 1             Africa             Algeria                  0      0
##  2 2019-12-31 1             Africa             Egypt                    0      0
##  3 2019-12-31 1             Africa             Nigeria                  0      0
##  4 2019-12-31 1             Asia               Afghanistan              0      0
##  5 2019-12-31 1             Asia               Bahrain                  0      0
##  6 2019-12-31 1             Asia               Cambodia                 0      0
##  7 2019-12-31 1             Asia               Cases_on_an_interna~     0      0
##  8 2019-12-31 1             Asia               China                   27      0
##  9 2019-12-31 1             Asia               India                    0      0
## 10 2019-12-31 1             Asia               Indonesia                0      0
## # ... with 86,134 more rows
```

```r
dt4_COVID_19 <-dt_COVID_19%>% 
  group_by(week_year) %>% 
  summarise(cases = sum(cases), deaths = sum(deaths), .groups = 'drop')
dt4_COVID_19
```

```
## # A tibble: 68 x 3
##    week_year  cases deaths
##    <date>     <dbl>  <dbl>
##  1 2019-12-29    44      0
##  2 2020-01-05    15      1
##  3 2020-01-12    25      1
##  4 2020-01-19  1267     39
##  5 2020-01-26 10596    218
##  6 2020-02-02 22989    465
##  7 2020-02-09 32171    803
##  8 2020-02-16 10701    832
##  9 2020-02-23  7440    562
## 10 2020-03-01 17621    567
## # ... with 58 more rows
```

```r
dt41_COVID_19 <-dt_COVID_19%>% 
  group_by(week_year, continent_geographical) %>% 
  summarise(cases = sum(cases), deaths = sum(deaths), .groups = 'drop')
dt41_COVID_19
```

```
## # A tibble: 476 x 4
##    week_year  continent_geographical cases deaths
##    <date>     <chr>                  <dbl>  <dbl>
##  1 2019-12-29 Africa                     0      0
##  2 2019-12-29 Asia                      44      0
##  3 2019-12-29 Australia & Oceania        0      0
##  4 2019-12-29 Europe                     0      0
##  5 2019-12-29 Europe / Asia              0      0
##  6 2019-12-29 North America              0      0
##  7 2019-12-29 South America              0      0
##  8 2020-01-05 Africa                     0      0
##  9 2020-01-05 Asia                      15      1
## 10 2020-01-05 Australia & Oceania        0      0
## # ... with 466 more rows
```

```r
dt42_COVID_19 <-dt_COVID_19%>% 
  group_by(week_year, continent_geographical, countries) %>% 
  summarise(cases = sum(cases), deaths = sum(deaths), .groups = 'drop')
dt42_COVID_19
```

```
## # A tibble: 12,543 x 5
##    week_year  continent_geographic~ countries                       cases deaths
##    <date>     <chr>                 <chr>                           <dbl>  <dbl>
##  1 2019-12-29 Africa                Algeria                             0      0
##  2 2019-12-29 Africa                Egypt                               0      0
##  3 2019-12-29 Africa                Nigeria                             0      0
##  4 2019-12-29 Asia                  Afghanistan                         0      0
##  5 2019-12-29 Asia                  Bahrain                             0      0
##  6 2019-12-29 Asia                  Cambodia                            0      0
##  7 2019-12-29 Asia                  Cases_on_an_international_conv~     0      0
##  8 2019-12-29 Asia                  China                              44      0
##  9 2019-12-29 Asia                  India                               0      0
## 10 2019-12-29 Asia                  Indonesia                           0      0
## # ... with 12,533 more rows
```

```r
dt43_COVID_19 <-dt_COVID_19%>% 
  group_by(week_year, covid_19_spread) %>% 
  summarise(cases = sum(cases), deaths = sum(deaths), .groups = 'drop')
dt43_COVID_19
```

```
## # A tibble: 408 x 4
##    week_year  covid_19_spread     cases deaths
##    <date>     <chr>               <dbl>  <dbl>
##  1 2019-12-29 Asia_Spread             0      0
##  2 2019-12-29 Europe/Asia_Spread      0      0
##  3 2019-12-29 NewEpiCentre_Europe     0      0
##  4 2019-12-29 Source_China           44      0
##  5 2019-12-29 USA_Spread              0      0
##  6 2019-12-29 Worldwide_Spread        0      0
##  7 2020-01-05 Asia_Spread             0      0
##  8 2020-01-05 Europe/Asia_Spread      0      0
##  9 2020-01-05 NewEpiCentre_Europe     0      0
## 10 2020-01-05 Source_China           15      1
## # ... with 398 more rows
```
…
```r
dt51_COVID_19 <-dt_COVID_19%>% 
  group_by(month_year, continent_geographical) %>% 
  summarise(cases = sum(cases), deaths = sum(deaths), .groups = 'drop')
dt51_COVID_19
```

```
## # A tibble: 119 x 4
##    month_year continent_geographical cases deaths
##    <date>     <chr>                  <dbl>  <dbl>
##  1 2019-12-01 Africa                     0      0
##  2 2019-12-01 Asia                      27      0
##  3 2019-12-01 Australia & Oceania        0      0
##  4 2019-12-01 Europe                     0      0
##  5 2019-12-01 Europe / Asia              0      0
##  6 2019-12-01 North America              0      0
##  7 2019-12-01 South America              0      0
##  8 2020-01-01 Africa                     0      0
##  9 2020-01-01 Asia                    9766    213
## 10 2020-01-01 Australia & Oceania        7      0
## # ... with 109 more rows
```

```r
dt52_COVID_19 <-dt_COVID_19%>% 
  group_by(month_year, continent_geographical, countries) %>% 
  summarise(cases = sum(cases), deaths = sum(deaths), .groups = 'drop')
dt52_COVID_19
```

```
## # A tibble: 3,101 x 5
##    month_year continent_geographic~ countries                       cases deaths
##    <date>     <chr>                 <chr>                           <dbl>  <dbl>
##  1 2019-12-01 Africa                Algeria                             0      0
##  2 2019-12-01 Africa                Egypt                               0      0
##  3 2019-12-01 Africa                Nigeria                             0      0
##  4 2019-12-01 Asia                  Afghanistan                         0      0
##  5 2019-12-01 Asia                  Bahrain                             0      0
##  6 2019-12-01 Asia                  Cambodia                            0      0
##  7 2019-12-01 Asia                  Cases_on_an_international_conv~     0      0
##  8 2019-12-01 Asia                  China                              27      0
##  9 2019-12-01 Asia                  India                               0      0
## 10 2019-12-01 Asia                  Indonesia                           0      0
## # ... with 3,091 more rows
```

```r
dt53_COVID_19 <-dt_COVID_19%>% 
  group_by(month_year, covid_19_spread) %>% 
  summarise(cases = sum(cases), deaths = sum(deaths), .groups = 'drop')
dt53_COVID_19
```

```
## # A tibble: 102 x 4
##    month_year covid_19_spread     cases deaths
##    <date>     <chr>               <dbl>  <dbl>
##  1 2019-12-01 Asia_Spread             0      0
##  2 2019-12-01 Europe/Asia_Spread      0      0
##  3 2019-12-01 NewEpiCentre_Europe     0      0
##  4 2019-12-01 Source_China           27      0
##  5 2019-12-01 USA_Spread              0      0
##  6 2019-12-01 Worldwide_Spread        0      0
##  7 2020-01-01 Asia_Spread            79      0
##  8 2020-01-01 Europe/Asia_Spread      0      0
##  9 2020-01-01 NewEpiCentre_Europe    15      0
## 10 2020-01-01 Source_China         9687    213
## # ... with 92 more rows
```
…
